{
  "locators":{
    "firstName":"FirstName",
    "lastName":"LastName",
    "userName":"UserName",
    "password":"Password",
    "dropDownRole":"//select[contains(@class,'required')]",
    "email":"Email",
    "cellphone":"Mobilephone",
    "buttonSave":".btn-success",
    "checkBoxLocked":"//td[text()='Locked']/following-sibling::td/label/input"
  }

}